{
    "name": "Orders",
    "alias": "orders",
    "description": "",
    "keywords": [],
    "priority": 0,
    "providers": [
        "Modules\\Orders\\App\\Providers\\OrdersServiceProvider"
    ],
    "files": []
}
